Enchanting
32665, 32664, 20051, 32667, 13628, 7421, 7795, 13702, 42620, 27967, 27968, 27951, 27954, 27950, 27948, 34009, 27945, 27946, 44383, 27905, 27906, 27913, 27911, 34004, 34003, 27962, 33996, 33995, 27960, 46594, 33990, 27958, 27957, 33992, 28022, 28016, 28019, 42615, 28021, 28027, 23800, 20033, 20034, 27964, 23803, 23799, 20031, 23804, 22750, 22749, 20032, 27837, 20035, 20030, 20036, 23802, 23801, 25083, 25084, 25086, 25082, 25081, 25080, 25072, 25079, 25073, 25078, 25074, 20025, 25130, 25129, 45765, 27982, 42974, 27981, 27984, 14809, 14810, 13693, 21931, 13655, 13653, 13695, 13637, 13644, 13687, 13689, 13631, 13659, 13646, 13648, 13642, 13661, 13635, 13657, 13698, 13700, 13663, 13640, 25126, 14293, 14807, 7788, 7786, 13380, 7745, 7793, 13378, 7779, 7428, 7457, 7766, 7782, 7418, 13421, 7771, 7454, 7426, 7776, 7443, 7748, 7420, 25124, 37890, 13503, 13529, 7867, 7863, 13485, 13464, 13501, 7859, 13536, 13622, 13419, 13522, 7861, 13617, 13612, 13620, 13538, 13626, 13607, 7857, 25125, 17181, 13898, 13943, 20029, 13915, 13937, 20023, 13935, 20020, 13836, 20024, 13890, 20017, 13817, 20016, 13905, 27944, 13933, 34002, 13931, 20011, 13945, 20009, 13846, 20010, 13939, 34001, 20008, 13822, 27899, 13882, 27961, 20015, 13746, 20014, 13794, 20012, 13815, 13947, 33993, 20013, 13887, 13948, 13868, 13841, 13941, 13917, 20028, 33991, 13858, 20026, 25127, 25128, 14847, 17180, 27927, 27920, 27926, 27924, 28003, 46578, 28004, 27975, 34010, 27972, 27977, 27971, 34007, 34008, 27947, 27917, 27914, 34006, 34005, 47051, 33994, 33997, 33999, 28028, 42613, 15596

Engineering
19026, 23786, 23787, 23785, 32478, 32473, 23836, 23821, 32494, 23766, 33093, 34061, 32461, 34060, 23827, 23784, 16006, 23825, 34113, 23819, 20475, 23781, 23783, 23782, 23762, 32474, 23835, 10725, 32756, 23763, 23824, 30542, 18587, 10720, 23826, 23765, 32479, 35581, 30544, 32495, 32472, 6533, 10561, 23841, 33092, 32475, 18283, 4389, 7191, 23746, 23768, 4371, 10518, 23736, 32480, 34504, 18232, 23758, 32476, 4369, 34353, 10646, 23737, 15994, 10560, 10498, 18168, 18631, 22728, 32423, 23764, 32413, 34357, 18986, 23767, 10505, 23838, 4377, 23748, 34847, 23775, 6219, 4407, 10559, 23742, 16040, 23828, 23839, 4382, 4392, 10562, 15992, 10713, 18641, 23829, 23774, 34356, 4384, 34354, 4387, 4359, 15997, 10558, 4404, 7148, 23761, 18588, 4357, 10507, 4375, 23772, 7189, 4394, 4397, 18594, 4364, 10504, 16022, 15846, 11826, 23747, 18984, 6714, 4388, 10645, 16000, 4361, 35181, 35183, 18639, 34355, 18634, 10576, 10726, 35185, 10542, 4406, 10548, 35184, 6712, 15996, 25886, 16023, 23771, 4398, 10501, 10586, 4385, 10588, 4366, 10502, 4360, 4373, 10503, 10577, 10727, 10724, 10546, 10644, 18660, 21277, 4363, 4390, 10545, 4396, 5507, 4362, 7506, 4368, 4381, 10543, 18638, 10721, 15993, 35182, 4367, 4383, 10716, 4365, 4395, 10500, 4380, 4393, 8068, 10512, 16005, 4386, 4391, 15995, 4379, 4403, 4852, 10499, 10510, 10513, 16004, 4358, 9318, 10506, 11825, 16008, 19998, 15999, 4401, 18282, 4370, 4372, 4405, 9312, 18637, 19999, 8069, 9313, 10587, 16009, 21558, 21559, 4374, 8067, 11590, 16007, 18645, 21569, 21570, 21576, 21716, 4376, 4378, 10514, 17716, 21557, 21571, 21574, 21718, 10508, 21590, 21714, 21589, 21592

Alchemy
23571, 22854, 22866, 22838, 22839, 22831, 25867, 21884, 13503, 22457, 22861, 22832, 22456, 21885, 22840, 31080, 32067, 22451, 25868, 21886, 22851, 12360, 22825, 33208, 28103, 22849, 22452, 31677, 34440, 22853, 9224, 13511, 13512, 22834, 32062, 22829, 22835, 28104, 9149, 32068, 22871, 22836, 35750, 5634, 9172, 32852, 22833, 32839, 9088, 13442, 2459, 22850, 7078, 12803, 7076, 6370, 6037, 31679, 35749, 32850, 3829, 13423, 9210, 13454, 22828, 22824, 13452, 22848, 32851, 3388, 6371, 8956, 7082, 7080, 32063, 22845, 3823, 7068, 20007, 32849, 12808, 28102, 13455, 13513, 22837, 22842, 13446, 13444, 22846, 9036, 20008, 9061, 13506, 3577, 3824, 929, 9030, 22827, 3387, 35751, 3928, 13443, 22826, 9197, 13445, 22841, 8951, 22844, 28100, 35748, 13510, 9264, 28101, 6662, 31676, 22830, 5996, 6372, 5631, 9179, 9155, 858, 3391, 8949, 3386, 1710, 22823, 13461, 3827, 9154, 22847, 18294, 3825, 118, 3383, 13457, 3385, 20004, 3390, 13447, 13462, 3382, 9187, 5997, 21546, 2455, 2457, 10592, 5633, 13453, 2458, 6050, 6149, 9206, 17708, 3826, 13459, 19931, 3828, 6048, 3389, 9144, 2454, 4623, 6049, 6373, 9233, 13456, 18253, 4596, 6051, 3384, 6052, 13458, 12190, 20002, 2456

Tailoring
24262, 30038, 24259, 24266, 24256, 30037, 24250, 24271, 24272, 24274, 21842, 21848, 21845, 21871, 24276, 21844, 21870, 21840, 21843, 24264, 21847, 21869, 21875, 21846, 24261, 21874, 21873, 21841, 21876, 30036, 21862, 24255, 30831, 24273, 21865, 21863, 21864, 22658, 24275, 21866, 21867, 24249, 24253, 24252, 24258, 30837, 38225, 21855, 24268, 24254, 21868, 21854, 34364, 21872, 21861, 30839, 21853, 30035, 13856, 24267, 10008, 14342, 22252, 21849, 14048, 21858, 24270, 21859, 4339, 22251, 30838, 24263, 21852, 10003, 32586, 21860, 32420, 21342, 21850, 5770, 7053, 22660, 4305, 10036, 9999, 14156, 22249, 10021, 14046, 38277, 10024, 10035, 32587, 7046, 21341, 24257, 10019, 21340, 10041, 14130, 14155, 21851, 34365, 24260, 9998, 34366, 7054, 18258, 4335, 32585, 38278, 4333, 14045, 2997, 13863, 22248, 4322, 2996, 7057, 10034, 22758, 6836, 10027, 32584, 4336, 6263, 7052, 10009, 16980, 4329, 10026, 14132, 34367, 14104, 4324, 10054, 14128, 32389, 2575, 34085, 14103, 14136, 4326, 4334, 10050, 22654, 13866, 24251, 4320, 14152, 22652, 32392, 10033, 20539, 4314, 6796, 10025, 10028, 10030, 10048, 10052, 13857, 13871, 19047, 32390, 4318, 10002, 13858, 13869, 4310, 6795, 10001, 14111, 14112, 2587, 4238, 4316, 4319, 4321, 6238, 13865, 13867, 13870, 14154, 18407, 19684, 20538, 22756, 7049, 10055, 14107, 22757, 4245, 5766, 6242, 7048, 14138, 19683, 21542, 4323, 10056, 13868, 14100, 22655, 2572, 2585, 10031, 14134, 18263, 18409, 21154, 22246, 32391, 2579, 4328, 4331, 7055, 7063, 14108, 14144, 19682, 4330, 6264, 7058, 10004, 10047, 10053, 13864, 14146, 14153, 18486, 19165, 4309, 4312, 4317, 6239, 6240, 6241, 6385, 7065, 14042, 18408, 2570, 2583, 4315, 5764, 5765, 6384, 7060, 7064, 10018, 10029, 14043, 34087, 4344, 10051, 14044, 14106, 14141, 17723, 19050, 19156, 20537, 2569, 2582, 2584, 4307, 4313, 5542, 7050, 10040, 10042, 13860, 14101, 14137, 14139, 15802, 19056, 2578, 7051, 7056, 7059, 10023, 10046, 14142, 14143, 18413, 2576, 2577, 4240, 4311, 4325, 4332, 4343, 5763, 6786, 7047, 7061, 10044, 16979, 18405, 19059, 2568, 2580, 4241, 4327, 7062, 10007, 10045, 14140, 4308, 5762, 6787, 7026

Cooking
724, 733, 787, 1017, 1082, 2679, 2680, 2681, 2682, 2683, 2684, 2685, 2687, 2888, 3220, 3662, 3663, 3664, 3665, 3666, 3726, 3727, 3728, 3729, 4457, 4592, 4593, 4594, 5095, 5472, 5473, 5474, 5476, 5477, 5478, 5479, 5480, 5525, 5526, 5527, 6038, 6290, 6316, 6657, 6887, 6888, 6890, 7676, 8364, 10841, 12209, 12210, 12212, 12213, 12214, 12215, 12216, 12217, 12218, 12224, 13851, 13927, 13928, 13929, 13930, 13931, 13932, 13933, 13934, 13935, 16766, 17197, 17198, 17222, 18045, 18254, 20074, 20452, 21023, 21072, 21217, 22645, 24105, 27635, 27636, 27651, 27655, 27656, 27657, 27658, 27659, 27660, 27661, 27662, 27663, 27664, 27665, 27666, 27667, 30155, 30816, 31672, 31673, 33048, 33052, 33053, 33825, 33866, 33867, 33872, 33874, 33924, 34411, 34832, 35563, 35565

Blacksmithing
28438, 28437, 28429, 23554, 28421, 33173, 23522, 28428, 28441, 25521, 23542, 28440, 25844, 28439, 23556, 25843, 23530, 31371, 23537, 28435, 23517, 16206, 23529, 23538, 31364, 31368, 28442, 28430, 23539, 31369, 30033, 30034, 30032, 6338, 23576, 23519, 28432, 31367, 31370, 23540, 28485, 25845, 28484, 23521, 23520, 23536, 28426, 11144, 12645, 23509, 28433, 33185, 23510, 28434, 23544, 28425, 23541, 28431, 28483, 23535, 11128, 23512, 3853, 12798, 23559, 23575, 29204, 23518, 28427, 7945, 28436, 12425, 23527, 3486, 3855, 7969, 23511, 12644, 12628, 7941, 9060, 32854, 23507, 12426, 30031, 23555, 23524, 7071, 22670, 23543, 23534, 23516, 23532, 3470, 3478, 23533, 34377, 23528, 15872, 23531, 18262, 19169, 23514, 23513, 23525, 23503, 12404, 6043, 2868, 6041, 23484, 7967, 23490, 7936, 22763, 23546, 7961, 12408, 7937, 23523, 32404, 28420, 23565, 30077, 7966, 23489, 33791, 12406, 23508, 23564, 6042, 7931, 23506, 23499, 30071, 32570, 30074, 30086, 30087, 12424, 2857, 23494, 23493, 30069, 12640, 7924, 7939, 12422, 23487, 2863, 2865, 12427, 23491, 30072, 2862, 20550, 30073, 11608, 23515, 7919, 22671, 30076, 12784, 23482, 30093, 32401, 17193, 23504, 32573, 23505, 3842, 12428, 29203, 2870, 30089, 32403, 22384, 34378, 15871, 22198, 34379, 7954, 23497, 29201, 12410, 23488, 3835, 7922, 7930, 6040, 7915, 7963, 32571, 34380, 7933, 7960, 12405, 12429, 15870, 22383, 23563, 22764, 7935, 12774, 20551, 7932, 19148, 22385, 12620, 19051, 22669, 32402, 2864, 7921, 7938, 7946, 12414, 12777, 19167, 3840, 3854, 12409, 12624, 12639, 12641, 19168, 3483, 7928, 12797, 22762, 30088, 2851, 3836, 3844, 7926, 7942, 12618, 12783, 15869, 23526, 29202, 7947, 12417, 12632, 12796, 19170, 19694, 22191, 2844, 3474, 3482, 3488, 3852, 5541, 7959, 10423, 12613, 12633, 12643, 19043, 19693, 20549, 23502, 2848, 2853, 3471, 3480, 3492, 3847, 6214, 7918, 7920, 7965, 12416, 12792, 17013, 2845, 2854, 2866, 3473, 3851, 3856, 6731, 7943, 7964, 12260, 12612, 12631, 12775, 12782, 12790, 17704, 19164, 19166, 19695, 20039, 22194, 22196, 30070, 32568, 2869, 3239, 3481, 3485, 3490, 3491, 3843, 7927, 11605, 12619, 12781, 12794, 16988, 17014, 17015, 17016, 22195, 22197, 2847, 2850, 3240, 3469, 3472, 3489, 3837, 3845, 5540, 7929, 11606, 12418, 12636, 16989, 23498, 2849, 2852, 3484, 6350, 7166, 7916, 12415, 12419, 12611, 12625, 19057, 19690, 19691, 19692, 3241, 3841, 7913, 7914, 7917, 7934, 7944, 7955, 7957, 7958, 9366, 10421, 11604, 11607, 12259, 12610, 12773, 12776, 19048, 2871, 3487, 3846, 3848, 3849, 3850, 7956, 12420, 12614

Jewelcrafting
31079, 34220, 32409, 31867, 31398, 24095, 31399, 24030, 24114, 24093, 24116, 25896, 25901, 24029, 24056, 24028, 25897, 24121, 24033, 24061, 35945, 24092, 24055, 24098, 30825, 32836, 24058, 25893, 31861, 24059, 24128, 24047, 24027, 24051, 24060, 24048, 24057, 25894, 24067, 24062, 23096, 24054, 32508, 25898, 35707, 31866, 24126, 33131, 31860, 34358, 23094, 33782, 35702, 31868, 33133, 23118, 32194, 32410, 24078, 24053, 23097, 20816, 32774, 33135, 24052, 24125, 24097, 20966, 33134, 23100, 35503, 23095, 24065, 20964, 33143, 23101, 25899, 35501, 24106, 33140, 34361, 24031, 32196, 30804, 32195, 24039, 32193, 25895, 23108, 20963, 24050, 24124, 31865, 20950, 32833, 23116, 34362, 33144, 24122, 25890, 32206, 23098, 28290, 24088, 24076, 24117, 23099, 23113, 24032, 35700, 24123, 24066, 32772, 20817, 21756, 24127, 35315, 24087, 32200, 32776, 34360, 21779, 24110, 29157, 29160, 32216, 24074, 34359, 35761, 24035, 23110, 20960, 21752, 29158, 24037, 24075, 32221, 35316, 21748, 23115, 31869, 32212, 23109, 23111, 24036, 35318, 20832, 32204, 21768, 21758, 32220, 31863, 32217, 23105, 23114, 28595, 21755, 25883, 20826, 20828, 20961, 21764, 32218, 21753, 23106, 25881, 32209, 21767, 21769, 32197, 34363, 35760, 29159, 32215, 32219, 20827, 25439, 23104, 23103, 32222, 35694, 37503, 21774, 30422, 20830, 20969, 21765, 20907, 23120, 21790, 20909, 20958, 21789, 32205, 21775, 35693, 23119, 32210, 21792, 21784, 23121, 24079, 32202, 25498, 32207, 32226, 21780, 30421, 32208, 32213, 32214, 32224, 20967, 24080, 32223, 20820, 20823, 20831, 20955, 35703, 20818, 24089, 32203, 35758, 20906, 21754, 21766, 25438, 30420, 32211, 25882, 31862, 21760, 21763, 21777, 24077, 30419, 32198, 20833, 21778, 21791, 24086, 31154, 32201, 21933, 35759, 20959, 21793, 24082, 20954, 21931, 21934, 24085, 20821, 21932, 25880, 32199, 32225, 31864

Mining
22574, 23448, 23573, 23449, 23446, 23447, 23445, 22573, 3859, 12359, 2841, 3860, 35128, 3575, 2840, 6037, 2842, 11371, 3577, 3576, 17771

Leatherworking
29535, 25686, 23793, 30040, 25653, 29525, 29536, 29519, 29515, 29529, 25685, 29485, 29522, 21887, 29527, 8345, 29533, 34105, 25689, 29526, 29523, 25687, 8170, 29534, 30039, 29521, 29520, 29524, 29486, 34100, 25697, 25690, 33122, 29516, 29517, 34099, 29506, 30046, 22661, 34330, 29487, 25691, 4304, 30041, 29540, 29495, 185848, 8203, 29528, 29488, 29507, 30043, 25696, 34106, 30042, 4234, 25695, 29503, 8204, 15084, 22662, 29508, 2319, 25671, 3719, 2318, 25651, 33204, 29502, 29497, 34490, 29496, 34369, 32581, 25652, 22663, 15086, 25680, 8176, 29509, 34207, 4249, 8211, 25679, 29531, 29505, 25650, 4236, 34370, 34482, 4233, 29532, 15407, 25681, 5966, 29489, 15564, 25669, 29483, 8193, 29530, 32575, 8187, 8172, 25657, 29504, 8214, 5963, 30044, 25683, 5964, 34375, 25682, 34373, 29511, 29514, 30045, 4239, 8218, 7276, 29500, 32574, 29490, 32579, 4265, 25668, 8197, 22759, 29964, 18258, 32580, 29512, 8217, 5962, 25670, 8191, 29510, 4246, 34376, 2315, 7349, 34371, 8189, 4253, 15083, 32396, 29975, 22760, 7378, 18662, 25659, 25693, 7371, 15062, 25694, 29973, 25673, 29491, 4231, 4251, 29498, 32577, 185852, 6468, 25674, 32583, 4248, 8175, 15061, 25692, 4255, 29971, 32398, 15065, 25676, 32393, 32397, 34372, 29494, 29974, 32394, 18510, 25654, 32395, 32582, 2313, 5961, 8348, 7348, 15058, 19685, 21278, 4247, 4264, 8173, 18251, 25655, 29970, 15050, 18948, 22761, 25675, 7391, 32400, 2312, 6709, 8198, 15060, 15088, 19162, 7372, 7375, 8207, 15056, 15063, 17721, 20296, 25660, 185851, 2314, 5782, 15096, 15138, 18238, 20479, 32399, 2304, 4252, 4456, 7279, 7374, 7387, 8216, 25662, 34086, 5781, 8192, 8347, 8349, 15074, 15094, 18511, 19687, 20295, 20481, 22665, 29492, 2303, 2309, 2311, 4237, 4260, 7284, 7390, 8209, 8210, 8212, 15064, 15066, 15067, 15093, 19044, 19686, 19689, 20380, 2308, 2316, 4455, 5780, 5958, 7373, 7377, 8174, 8367, 15049, 15053, 15068, 15073, 15075, 15077, 15080, 19163, 20575, 22666, 25656, 2300, 2302, 2307, 2310, 4244, 4250, 4254, 5739, 7282, 7283, 7352, 8200, 8201, 8213, 15045, 15047, 15052, 15057, 15059, 15076, 15078, 15091, 16982, 18504, 18506, 19157, 20478, 25661, 29499, 34374, 185849, 4242, 4257, 4258, 4259, 5965, 6467, 7278, 7359, 7386, 8206, 8208, 8215, 15046, 15051, 15055, 15069, 15070, 15071, 15072, 15079, 15092, 18509, 19049, 19058, 19149, 19688, 22664, 2317, 4243, 5957, 6466, 8185, 15054, 15081, 15082, 15090, 15095, 16983, 16984, 18508, 20476, 20480, 29493, 4256, 4262, 5081, 7280, 7285, 7358, 8202, 8205, 8346, 15048, 15085, 20477, 5783, 7277, 7281, 15087, 19052
